^C:\PROJEKTI\GIT\PALCKE\MBSOFTWARE\CAMERA.CPP|C:\PROJEKTI\GIT\PALCKE\MBSOFTWARE\CCIRCLE.CPP|C:\PROJEKTI\GIT\PALCKE\MBSOFTWARE\CCUSTOMGRAPHICSITEM.CPP|C:\PROJEKTI\GIT\PALCKE\MBSOFTWARE\CLINE.CPP|C:\PROJEKTI\GIT\PALCKE\MBSOFTWARE\CONTROLCARDMB.CPP|C:\PROJEKTI\GIT\PALCKE\MBSOFTWARE\CPOINTFLOAT.CPP|C:\PROJEKTI\GIT\PALCKE\MBSOFTWARE\CRECTROTATED.CPP|C:\PROJEKTI\GIT\PALCKE\MBSOFTWARE\DLGTYPES.CPP|C:\PROJEKTI\GIT\PALCKE\MBSOFTWARE\IMAGEPROCESSING.CPP|C:\PROJEKTI\GIT\PALCKE\MBSOFTWARE\IMAGINGSOURCE.CPP|C:\PROJEKTI\GIT\PALCKE\MBSOFTWARE\LOGINWINDOW.CPP|C:\PROJEKTI\GIT\PALCKE\MBSOFTWARE\MAIN.CPP|C:\PROJEKTI\GIT\PALCKE\MBSOFTWARE\MBSOFTWARE.CPP|C:\PROJEKTI\GIT\PALCKE\MBSOFTWARE\MEASURAND.CPP|C:\PROJEKTI\GIT\PALCKE\MBSOFTWARE\MEMORYBUFFER.CPP|C:\PROJEKTI\GIT\PALCKE\MBSOFTWARE\PCIE.CPP|C:\PROJEKTI\GIT\PALCKE\MBSOFTWARE\POINTGRAY.CPP|C:\PROJEKTI\GIT\PALCKE\MBSOFTWARE\SERIAL.CPP|C:\PROJEKTI\GIT\PALCKE\MBSOFTWARE\SIGNALS.CPP|C:\PROJEKTI\GIT\PALCKE\MBSOFTWARE\SMCDRIVE.CPP|C:\PROJEKTI\GIT\PALCKE\MBSOFTWARE\STATUSBOX.CPP|C:\PROJEKTI\GIT\PALCKE\MBSOFTWARE\STDAFX.CPP|C:\PROJEKTI\GIT\PALCKE\MBSOFTWARE\TIMER.CPP|C:\PROJEKTI\GIT\PALCKE\MBSOFTWARE\TYPES.CPP
C:\PROJEKTI\GIT\PALCKE\MBSOFTWARE\RELEASE\IMAGEPROCESSING.OBJ
C:\PROJEKTI\GIT\PALCKE\MBSOFTWARE\RELEASE\PCIE.OBJ
C:\PROJEKTI\GIT\PALCKE\MBSOFTWARE\RELEASE\STATUSBOX.OBJ
C:\PROJEKTI\GIT\PALCKE\MBSOFTWARE\RELEASE\CPOINTFLOAT.OBJ
C:\PROJEKTI\GIT\PALCKE\MBSOFTWARE\RELEASE\LOGINWINDOW.OBJ
C:\PROJEKTI\GIT\PALCKE\MBSOFTWARE\RELEASE\TIMER.OBJ
C:\PROJEKTI\GIT\PALCKE\MBSOFTWARE\RELEASE\CAMERA.OBJ
C:\PROJEKTI\GIT\PALCKE\MBSOFTWARE\RELEASE\MEMORYBUFFER.OBJ
C:\PROJEKTI\GIT\PALCKE\MBSOFTWARE\RELEASE\SMCDRIVE.OBJ
C:\PROJEKTI\GIT\PALCKE\MBSOFTWARE\RELEASE\CONTROLCARDMB.OBJ
C:\PROJEKTI\GIT\PALCKE\MBSOFTWARE\RELEASE\MAIN.OBJ
C:\PROJEKTI\GIT\PALCKE\MBSOFTWARE\RELEASE\SIGNALS.OBJ
C:\PROJEKTI\GIT\PALCKE\MBSOFTWARE\RELEASE\CCIRCLE.OBJ
C:\PROJEKTI\GIT\PALCKE\MBSOFTWARE\RELEASE\MEASURAND.OBJ
C:\PROJEKTI\GIT\PALCKE\MBSOFTWARE\RELEASE\SERIAL.OBJ
C:\PROJEKTI\GIT\PALCKE\MBSOFTWARE\RELEASE\CCUSTOMGRAPHICSITEM.OBJ
C:\PROJEKTI\GIT\PALCKE\MBSOFTWARE\RELEASE\IMAGINGSOURCE.OBJ
C:\PROJEKTI\GIT\PALCKE\MBSOFTWARE\RELEASE\STDAFX.OBJ
C:\PROJEKTI\GIT\PALCKE\MBSOFTWARE\RELEASE\CRECTROTATED.OBJ
C:\PROJEKTI\GIT\PALCKE\MBSOFTWARE\RELEASE\CLINE.OBJ
C:\PROJEKTI\GIT\PALCKE\MBSOFTWARE\RELEASE\POINTGRAY.OBJ
C:\PROJEKTI\GIT\PALCKE\MBSOFTWARE\RELEASE\DLGTYPES.OBJ
C:\PROJEKTI\GIT\PALCKE\MBSOFTWARE\RELEASE\MBSOFTWARE.OBJ
C:\PROJEKTI\GIT\PALCKE\MBSOFTWARE\RELEASE\TYPES.OBJ
^C:\PROJEKTI\GIT\PALCKE\MBSOFTWARE\GENERATEDFILES\QRC_MBSOFTWARE.CPP|C:\PROJEKTI\GIT\PALCKE\MBSOFTWARE\GENERATEDFILES\RELEASE\MOC_CAMERA.CPP|C:\PROJEKTI\GIT\PALCKE\MBSOFTWARE\GENERATEDFILES\RELEASE\MOC_CONTROLCARDMB.CPP|C:\PROJEKTI\GIT\PALCKE\MBSOFTWARE\GENERATEDFILES\RELEASE\MOC_DLGTYPES.CPP|C:\PROJEKTI\GIT\PALCKE\MBSOFTWARE\GENERATEDFILES\RELEASE\MOC_IMAGEPROCESSING.CPP|C:\PROJEKTI\GIT\PALCKE\MBSOFTWARE\GENERATEDFILES\RELEASE\MOC_LOGINWINDOW.CPP|C:\PROJEKTI\GIT\PALCKE\MBSOFTWARE\GENERATEDFILES\RELEASE\MOC_MBSOFTWARE.CPP|C:\PROJEKTI\GIT\PALCKE\MBSOFTWARE\GENERATEDFILES\RELEASE\MOC_MEASURAND.CPP|C:\PROJEKTI\GIT\PALCKE\MBSOFTWARE\GENERATEDFILES\RELEASE\MOC_POINTGRAY.CPP|C:\PROJEKTI\GIT\PALCKE\MBSOFTWARE\GENERATEDFILES\RELEASE\MOC_SERIAL.CPP|C:\PROJEKTI\GIT\PALCKE\MBSOFTWARE\GENERATEDFILES\RELEASE\MOC_SMCDRIVE.CPP|C:\PROJEKTI\GIT\PALCKE\MBSOFTWARE\GENERATEDFILES\RELEASE\MOC_STATUSBOX.CPP|C:\PROJEKTI\GIT\PALCKE\MBSOFTWARE\GENERATEDFILES\RELEASE\MOC_TYPES.CPP
C:\PROJEKTI\GIT\PALCKE\MBSOFTWARE\RELEASE\MOC_MBSOFTWARE.OBJ
C:\PROJEKTI\GIT\PALCKE\MBSOFTWARE\RELEASE\MOC_MBSOFTWARE.ASM
C:\PROJEKTI\GIT\PALCKE\MBSOFTWARE\RELEASE\MOC_DLGTYPES.OBJ
C:\PROJEKTI\GIT\PALCKE\MBSOFTWARE\RELEASE\MOC_DLGTYPES.ASM
C:\PROJEKTI\GIT\PALCKE\MBSOFTWARE\RELEASE\MOC_IMAGEPROCESSING.OBJ
C:\PROJEKTI\GIT\PALCKE\MBSOFTWARE\RELEASE\MOC_IMAGEPROCESSING.ASM
C:\PROJEKTI\GIT\PALCKE\MBSOFTWARE\RELEASE\MOC_POINTGRAY.OBJ
C:\PROJEKTI\GIT\PALCKE\MBSOFTWARE\RELEASE\MOC_POINTGRAY.ASM
C:\PROJEKTI\GIT\PALCKE\MBSOFTWARE\RELEASE\MOC_LOGINWINDOW.OBJ
C:\PROJEKTI\GIT\PALCKE\MBSOFTWARE\RELEASE\MOC_LOGINWINDOW.ASM
C:\PROJEKTI\GIT\PALCKE\MBSOFTWARE\RELEASE\MOC_STATUSBOX.OBJ
C:\PROJEKTI\GIT\PALCKE\MBSOFTWARE\RELEASE\MOC_STATUSBOX.ASM
C:\PROJEKTI\GIT\PALCKE\MBSOFTWARE\RELEASE\MOC_MEASURAND.OBJ
C:\PROJEKTI\GIT\PALCKE\MBSOFTWARE\RELEASE\MOC_MEASURAND.ASM
C:\PROJEKTI\GIT\PALCKE\MBSOFTWARE\RELEASE\MOC_SERIAL.OBJ
C:\PROJEKTI\GIT\PALCKE\MBSOFTWARE\RELEASE\MOC_SERIAL.ASM
C:\PROJEKTI\GIT\PALCKE\MBSOFTWARE\RELEASE\MOC_TYPES.OBJ
C:\PROJEKTI\GIT\PALCKE\MBSOFTWARE\RELEASE\MOC_TYPES.ASM
C:\PROJEKTI\GIT\PALCKE\MBSOFTWARE\RELEASE\MOC_CONTROLCARDMB.OBJ
C:\PROJEKTI\GIT\PALCKE\MBSOFTWARE\RELEASE\MOC_CONTROLCARDMB.ASM
C:\PROJEKTI\GIT\PALCKE\MBSOFTWARE\RELEASE\QRC_MBSOFTWARE.OBJ
C:\PROJEKTI\GIT\PALCKE\MBSOFTWARE\RELEASE\QRC_MBSOFTWARE.ASM
C:\PROJEKTI\GIT\PALCKE\MBSOFTWARE\RELEASE\MOC_CAMERA.OBJ
C:\PROJEKTI\GIT\PALCKE\MBSOFTWARE\RELEASE\MOC_CAMERA.ASM
C:\PROJEKTI\GIT\PALCKE\MBSOFTWARE\RELEASE\MOC_SMCDRIVE.OBJ
C:\PROJEKTI\GIT\PALCKE\MBSOFTWARE\RELEASE\MOC_SMCDRIVE.ASM
^C:\PROJEKTI\GIT\PALCKE\MBSOFTWARE\IMAGEPROCESSING.CPP|C:\PROJEKTI\GIT\PALCKE\MBSOFTWARE\MBSOFTWARE.CPP
C:\PROJEKTI\GIT\PALCKE\MBSOFTWARE\RELEASE\MBSOFTWARE.OBJ
C:\PROJEKTI\GIT\PALCKE\MBSOFTWARE\RELEASE\IMAGEPROCESSING.OBJ
^C:\PROJEKTI\GIT\PALCKE\MBSOFTWARE\IMAGEPROCESSING.CPP|C:\PROJEKTI\GIT\PALCKE\MBSOFTWARE\LOGINWINDOW.CPP|C:\PROJEKTI\GIT\PALCKE\MBSOFTWARE\MAIN.CPP|C:\PROJEKTI\GIT\PALCKE\MBSOFTWARE\MBSOFTWARE.CPP
C:\PROJEKTI\GIT\PALCKE\MBSOFTWARE\RELEASE\MBSOFTWARE.OBJ
C:\PROJEKTI\GIT\PALCKE\MBSOFTWARE\RELEASE\LOGINWINDOW.OBJ
C:\PROJEKTI\GIT\PALCKE\MBSOFTWARE\RELEASE\MAIN.OBJ
C:\PROJEKTI\GIT\PALCKE\MBSOFTWARE\RELEASE\IMAGEPROCESSING.OBJ
^C:\PROJEKTI\GIT\PALCKE\MBSOFTWARE\GENERATEDFILES\RELEASE\MOC_IMAGEPROCESSING.CPP|C:\PROJEKTI\GIT\PALCKE\MBSOFTWARE\GENERATEDFILES\RELEASE\MOC_MBSOFTWARE.CPP
C:\PROJEKTI\GIT\PALCKE\MBSOFTWARE\RELEASE\MOC_IMAGEPROCESSING.OBJ
C:\PROJEKTI\GIT\PALCKE\MBSOFTWARE\RELEASE\MOC_IMAGEPROCESSING.ASM
C:\PROJEKTI\GIT\PALCKE\MBSOFTWARE\RELEASE\MOC_MBSOFTWARE.OBJ
C:\PROJEKTI\GIT\PALCKE\MBSOFTWARE\RELEASE\MOC_MBSOFTWARE.ASM
^C:\PROJEKTI\GIT\PALCKE\MBSOFTWARE\CAMERA.CPP|C:\PROJEKTI\GIT\PALCKE\MBSOFTWARE\CONTROLCARDMB.CPP|C:\PROJEKTI\GIT\PALCKE\MBSOFTWARE\DLGTYPES.CPP|C:\PROJEKTI\GIT\PALCKE\MBSOFTWARE\IMAGEPROCESSING.CPP|C:\PROJEKTI\GIT\PALCKE\MBSOFTWARE\IMAGINGSOURCE.CPP|C:\PROJEKTI\GIT\PALCKE\MBSOFTWARE\LOGINWINDOW.CPP|C:\PROJEKTI\GIT\PALCKE\MBSOFTWARE\MAIN.CPP|C:\PROJEKTI\GIT\PALCKE\MBSOFTWARE\MBSOFTWARE.CPP|C:\PROJEKTI\GIT\PALCKE\MBSOFTWARE\POINTGRAY.CPP|C:\PROJEKTI\GIT\PALCKE\MBSOFTWARE\SMCDRIVE.CPP|C:\PROJEKTI\GIT\PALCKE\MBSOFTWARE\STATUSBOX.CPP|C:\PROJEKTI\GIT\PALCKE\MBSOFTWARE\TYPES.CPP
C:\PROJEKTI\GIT\PALCKE\MBSOFTWARE\RELEASE\IMAGINGSOURCE.OBJ
C:\PROJEKTI\GIT\PALCKE\MBSOFTWARE\RELEASE\SMCDRIVE.OBJ
C:\PROJEKTI\GIT\PALCKE\MBSOFTWARE\RELEASE\CONTROLCARDMB.OBJ
C:\PROJEKTI\GIT\PALCKE\MBSOFTWARE\RELEASE\STATUSBOX.OBJ
C:\PROJEKTI\GIT\PALCKE\MBSOFTWARE\RELEASE\DLGTYPES.OBJ
C:\PROJEKTI\GIT\PALCKE\MBSOFTWARE\RELEASE\MAIN.OBJ
C:\PROJEKTI\GIT\PALCKE\MBSOFTWARE\RELEASE\LOGINWINDOW.OBJ
C:\PROJEKTI\GIT\PALCKE\MBSOFTWARE\RELEASE\POINTGRAY.OBJ
C:\PROJEKTI\GIT\PALCKE\MBSOFTWARE\RELEASE\IMAGEPROCESSING.OBJ
C:\PROJEKTI\GIT\PALCKE\MBSOFTWARE\RELEASE\MBSOFTWARE.OBJ
C:\PROJEKTI\GIT\PALCKE\MBSOFTWARE\RELEASE\CAMERA.OBJ
C:\PROJEKTI\GIT\PALCKE\MBSOFTWARE\RELEASE\TYPES.OBJ
^C:\PROJEKTI\GIT\PALCKE\MBSOFTWARE\GENERATEDFILES\QRC_MBSOFTWARE.CPP|C:\PROJEKTI\GIT\PALCKE\MBSOFTWARE\GENERATEDFILES\RELEASE\MOC_CAMERA.CPP|C:\PROJEKTI\GIT\PALCKE\MBSOFTWARE\GENERATEDFILES\RELEASE\MOC_CONTROLCARDMB.CPP|C:\PROJEKTI\GIT\PALCKE\MBSOFTWARE\GENERATEDFILES\RELEASE\MOC_DLGTYPES.CPP|C:\PROJEKTI\GIT\PALCKE\MBSOFTWARE\GENERATEDFILES\RELEASE\MOC_IMAGEPROCESSING.CPP|C:\PROJEKTI\GIT\PALCKE\MBSOFTWARE\GENERATEDFILES\RELEASE\MOC_LOGINWINDOW.CPP|C:\PROJEKTI\GIT\PALCKE\MBSOFTWARE\GENERATEDFILES\RELEASE\MOC_MBSOFTWARE.CPP|C:\PROJEKTI\GIT\PALCKE\MBSOFTWARE\GENERATEDFILES\RELEASE\MOC_POINTGRAY.CPP|C:\PROJEKTI\GIT\PALCKE\MBSOFTWARE\GENERATEDFILES\RELEASE\MOC_SMCDRIVE.CPP|C:\PROJEKTI\GIT\PALCKE\MBSOFTWARE\GENERATEDFILES\RELEASE\MOC_STATUSBOX.CPP|C:\PROJEKTI\GIT\PALCKE\MBSOFTWARE\GENERATEDFILES\RELEASE\MOC_TYPES.CPP
C:\PROJEKTI\GIT\PALCKE\MBSOFTWARE\RELEASE\MOC_TYPES.OBJ
C:\PROJEKTI\GIT\PALCKE\MBSOFTWARE\RELEASE\MOC_TYPES.ASM
C:\PROJEKTI\GIT\PALCKE\MBSOFTWARE\RELEASE\MOC_MBSOFTWARE.OBJ
C:\PROJEKTI\GIT\PALCKE\MBSOFTWARE\RELEASE\MOC_MBSOFTWARE.ASM
C:\PROJEKTI\GIT\PALCKE\MBSOFTWARE\RELEASE\MOC_CONTROLCARDMB.OBJ
C:\PROJEKTI\GIT\PALCKE\MBSOFTWARE\RELEASE\MOC_CONTROLCARDMB.ASM
C:\PROJEKTI\GIT\PALCKE\MBSOFTWARE\RELEASE\QRC_MBSOFTWARE.OBJ
C:\PROJEKTI\GIT\PALCKE\MBSOFTWARE\RELEASE\QRC_MBSOFTWARE.ASM
C:\PROJEKTI\GIT\PALCKE\MBSOFTWARE\RELEASE\MOC_LOGINWINDOW.OBJ
C:\PROJEKTI\GIT\PALCKE\MBSOFTWARE\RELEASE\MOC_LOGINWINDOW.ASM
C:\PROJEKTI\GIT\PALCKE\MBSOFTWARE\RELEASE\MOC_IMAGEPROCESSING.OBJ
C:\PROJEKTI\GIT\PALCKE\MBSOFTWARE\RELEASE\MOC_IMAGEPROCESSING.ASM
C:\PROJEKTI\GIT\PALCKE\MBSOFTWARE\RELEASE\MOC_SMCDRIVE.OBJ
C:\PROJEKTI\GIT\PALCKE\MBSOFTWARE\RELEASE\MOC_SMCDRIVE.ASM
C:\PROJEKTI\GIT\PALCKE\MBSOFTWARE\RELEASE\MOC_DLGTYPES.OBJ
C:\PROJEKTI\GIT\PALCKE\MBSOFTWARE\RELEASE\MOC_DLGTYPES.ASM
C:\PROJEKTI\GIT\PALCKE\MBSOFTWARE\RELEASE\MOC_STATUSBOX.OBJ
C:\PROJEKTI\GIT\PALCKE\MBSOFTWARE\RELEASE\MOC_STATUSBOX.ASM
C:\PROJEKTI\GIT\PALCKE\MBSOFTWARE\RELEASE\MOC_CAMERA.OBJ
C:\PROJEKTI\GIT\PALCKE\MBSOFTWARE\RELEASE\MOC_CAMERA.ASM
C:\PROJEKTI\GIT\PALCKE\MBSOFTWARE\RELEASE\MOC_POINTGRAY.OBJ
C:\PROJEKTI\GIT\PALCKE\MBSOFTWARE\RELEASE\MOC_POINTGRAY.ASM
^C:\PROJEKTI\GIT\PALCKE\MBSOFTWARE\CAMERA.CPP|C:\PROJEKTI\GIT\PALCKE\MBSOFTWARE\IMAGEPROCESSING.CPP|C:\PROJEKTI\GIT\PALCKE\MBSOFTWARE\IMAGINGSOURCE.CPP|C:\PROJEKTI\GIT\PALCKE\MBSOFTWARE\LOGINWINDOW.CPP|C:\PROJEKTI\GIT\PALCKE\MBSOFTWARE\MAIN.CPP|C:\PROJEKTI\GIT\PALCKE\MBSOFTWARE\MBSOFTWARE.CPP|C:\PROJEKTI\GIT\PALCKE\MBSOFTWARE\POINTGRAY.CPP
C:\PROJEKTI\GIT\PALCKE\MBSOFTWARE\RELEASE\CAMERA.OBJ
C:\PROJEKTI\GIT\PALCKE\MBSOFTWARE\RELEASE\IMAGEPROCESSING.OBJ
C:\PROJEKTI\GIT\PALCKE\MBSOFTWARE\RELEASE\MAIN.OBJ
C:\PROJEKTI\GIT\PALCKE\MBSOFTWARE\RELEASE\IMAGINGSOURCE.OBJ
C:\PROJEKTI\GIT\PALCKE\MBSOFTWARE\RELEASE\LOGINWINDOW.OBJ
C:\PROJEKTI\GIT\PALCKE\MBSOFTWARE\RELEASE\MBSOFTWARE.OBJ
C:\PROJEKTI\GIT\PALCKE\MBSOFTWARE\RELEASE\POINTGRAY.OBJ
^C:\PROJEKTI\GIT\PALCKE\MBSOFTWARE\GENERATEDFILES\RELEASE\MOC_CAMERA.CPP|C:\PROJEKTI\GIT\PALCKE\MBSOFTWARE\GENERATEDFILES\RELEASE\MOC_IMAGEPROCESSING.CPP|C:\PROJEKTI\GIT\PALCKE\MBSOFTWARE\GENERATEDFILES\RELEASE\MOC_MBSOFTWARE.CPP|C:\PROJEKTI\GIT\PALCKE\MBSOFTWARE\GENERATEDFILES\RELEASE\MOC_POINTGRAY.CPP
C:\PROJEKTI\GIT\PALCKE\MBSOFTWARE\RELEASE\MOC_CAMERA.OBJ
C:\PROJEKTI\GIT\PALCKE\MBSOFTWARE\RELEASE\MOC_CAMERA.ASM
C:\PROJEKTI\GIT\PALCKE\MBSOFTWARE\RELEASE\MOC_MBSOFTWARE.OBJ
C:\PROJEKTI\GIT\PALCKE\MBSOFTWARE\RELEASE\MOC_MBSOFTWARE.ASM
C:\PROJEKTI\GIT\PALCKE\MBSOFTWARE\RELEASE\MOC_IMAGEPROCESSING.OBJ
C:\PROJEKTI\GIT\PALCKE\MBSOFTWARE\RELEASE\MOC_IMAGEPROCESSING.ASM
C:\PROJEKTI\GIT\PALCKE\MBSOFTWARE\RELEASE\MOC_POINTGRAY.OBJ
C:\PROJEKTI\GIT\PALCKE\MBSOFTWARE\RELEASE\MOC_POINTGRAY.ASM
^C:\PROJEKTI\GIT\PALCKE\MBSOFTWARE\IMAGINGSOURCE.CPP|C:\PROJEKTI\GIT\PALCKE\MBSOFTWARE\MBSOFTWARE.CPP
C:\PROJEKTI\GIT\PALCKE\MBSOFTWARE\RELEASE\IMAGINGSOURCE.OBJ
C:\PROJEKTI\GIT\PALCKE\MBSOFTWARE\RELEASE\MBSOFTWARE.OBJ
