^C:\PROJEKTI\PROJEKTI\NEWHRAST\HRASTVIJAKI\MBSOFTWARE\X64\RELEASE\ABOUTUS.OBJ|C:\PROJEKTI\PROJEKTI\NEWHRAST\HRASTVIJAKI\MBSOFTWARE\X64\RELEASE\CAMERA.OBJ|C:\PROJEKTI\PROJEKTI\NEWHRAST\HRASTVIJAKI\MBSOFTWARE\X64\RELEASE\CCIRCLE.OBJ|C:\PROJEKTI\PROJEKTI\NEWHRAST\HRASTVIJAKI\MBSOFTWARE\X64\RELEASE\CCUSTOMGRAPHICSITEM.OBJ|C:\PROJEKTI\PROJEKTI\NEWHRAST\HRASTVIJAKI\MBSOFTWARE\X64\RELEASE\CLINE.OBJ|C:\PROJEKTI\PROJEKTI\NEWHRAST\HRASTVIJAKI\MBSOFTWARE\X64\RELEASE\CONTROLCARDMB.OBJ|C:\PROJEKTI\PROJEKTI\NEWHRAST\HRASTVIJAKI\MBSOFTWARE\X64\RELEASE\CONTROLLPT.OBJ|C:\PROJEKTI\PROJEKTI\NEWHRAST\HRASTVIJAKI\MBSOFTWARE\X64\RELEASE\CPOINTFLOAT.OBJ|C:\PROJEKTI\PROJEKTI\NEWHRAST\HRASTVIJAKI\MBSOFTWARE\X64\RELEASE\CPROPERTY.OBJ|C:\PROJEKTI\PROJEKTI\NEWHRAST\HRASTVIJAKI\MBSOFTWARE\X64\RELEASE\CRECTROTATED.OBJ|C:\PROJEKTI\PROJEKTI\NEWHRAST\HRASTVIJAKI\MBSOFTWARE\X64\RELEASE\DELAYEDDRAW.OBJ|C:\PROJEKTI\PROJEKTI\NEWHRAST\HRASTVIJAKI\MBSOFTWARE\X64\RELEASE\DLGTYPES.OBJ|C:\PROJEKTI\PROJEKTI\NEWHRAST\HRASTVIJAKI\MBSOFTWARE\X64\RELEASE\GENERALSETTINGS.OBJ|C:\PROJEKTI\PROJEKTI\NEWHRAST\HRASTVIJAKI\MBSOFTWARE\X64\RELEASE\HISTORY.OBJ|C:\PROJEKTI\PROJEKTI\NEWHRAST\HRASTVIJAKI\MBSOFTWARE\X64\RELEASE\IMAGEPROCESSING.OBJ|C:\PROJEKTI\PROJEKTI\NEWHRAST\HRASTVIJAKI\MBSOFTWARE\X64\RELEASE\IMAGINGSOURCE.OBJ|C:\PROJEKTI\PROJEKTI\NEWHRAST\HRASTVIJAKI\MBSOFTWARE\X64\RELEASE\LOGINWINDOW.OBJ|C:\PROJEKTI\PROJEKTI\NEWHRAST\HRASTVIJAKI\MBSOFTWARE\X64\RELEASE\LOGWINDOW.OBJ|C:\PROJEKTI\PROJEKTI\NEWHRAST\HRASTVIJAKI\MBSOFTWARE\X64\RELEASE\MAIN.OBJ|C:\PROJEKTI\PROJEKTI\NEWHRAST\HRASTVIJAKI\MBSOFTWARE\X64\RELEASE\MBSOFTWARE.OBJ|C:\PROJEKTI\PROJEKTI\NEWHRAST\HRASTVIJAKI\MBSOFTWARE\X64\RELEASE\MBSOFTWARE.RES|C:\PROJEKTI\PROJEKTI\NEWHRAST\HRASTVIJAKI\MBSOFTWARE\X64\RELEASE\MEASURAND.OBJ|C:\PROJEKTI\PROJEKTI\NEWHRAST\HRASTVIJAKI\MBSOFTWARE\X64\RELEASE\MEMORYBUFFER.OBJ|C:\PROJEKTI\PROJEKTI\NEWHRAST\HRASTVIJAKI\MBSOFTWARE\X64\RELEASE\MOC_ABOUTUS.OBJ|C:\PROJEKTI\PROJEKTI\NEWHRAST\HRASTVIJAKI\MBSOFTWARE\X64\RELEASE\MOC_CAMERA.OBJ|C:\PROJEKTI\PROJEKTI\NEWHRAST\HRASTVIJAKI\MBSOFTWARE\X64\RELEASE\MOC_CONTROLCARDMB.OBJ|C:\PROJEKTI\PROJEKTI\NEWHRAST\HRASTVIJAKI\MBSOFTWARE\X64\RELEASE\MOC_CONTROLLPT.OBJ|C:\PROJEKTI\PROJEKTI\NEWHRAST\HRASTVIJAKI\MBSOFTWARE\X64\RELEASE\MOC_DLGTYPES.OBJ|C:\PROJEKTI\PROJEKTI\NEWHRAST\HRASTVIJAKI\MBSOFTWARE\X64\RELEASE\MOC_GENERALSETTINGS.OBJ|C:\PROJEKTI\PROJEKTI\NEWHRAST\HRASTVIJAKI\MBSOFTWARE\X64\RELEASE\MOC_HISTORY.OBJ|C:\PROJEKTI\PROJEKTI\NEWHRAST\HRASTVIJAKI\MBSOFTWARE\X64\RELEASE\MOC_IMAGEPROCESSING.OBJ|C:\PROJEKTI\PROJEKTI\NEWHRAST\HRASTVIJAKI\MBSOFTWARE\X64\RELEASE\MOC_LOGINWINDOW.OBJ|C:\PROJEKTI\PROJEKTI\NEWHRAST\HRASTVIJAKI\MBSOFTWARE\X64\RELEASE\MOC_LOGWINDOW.OBJ|C:\PROJEKTI\PROJEKTI\NEWHRAST\HRASTVIJAKI\MBSOFTWARE\X64\RELEASE\MOC_MBSOFTWARE.OBJ|C:\PROJEKTI\PROJEKTI\NEWHRAST\HRASTVIJAKI\MBSOFTWARE\X64\RELEASE\MOC_MEASURAND.OBJ|C:\PROJEKTI\PROJEKTI\NEWHRAST\HRASTVIJAKI\MBSOFTWARE\X64\RELEASE\MOC_POINTGRAY.OBJ|C:\PROJEKTI\PROJEKTI\NEWHRAST\HRASTVIJAKI\MBSOFTWARE\X64\RELEASE\MOC_SERIAL.OBJ|C:\PROJEKTI\PROJEKTI\NEWHRAST\HRASTVIJAKI\MBSOFTWARE\X64\RELEASE\MOC_SERVER.OBJ|C:\PROJEKTI\PROJEKTI\NEWHRAST\HRASTVIJAKI\MBSOFTWARE\X64\RELEASE\MOC_SMCDRIVE.OBJ|C:\PROJEKTI\PROJEKTI\NEWHRAST\HRASTVIJAKI\MBSOFTWARE\X64\RELEASE\MOC_STATUSBOX.OBJ|C:\PROJEKTI\PROJEKTI\NEWHRAST\HRASTVIJAKI\MBSOFTWARE\X64\RELEASE\MOC_TCP.OBJ|C:\PROJEKTI\PROJEKTI\NEWHRAST\HRASTVIJAKI\MBSOFTWARE\X64\RELEASE\MOC_TYPES.OBJ|C:\PROJEKTI\PROJEKTI\NEWHRAST\HRASTVIJAKI\MBSOFTWARE\X64\RELEASE\MOC_XILINXZYNQ.OBJ|C:\PROJEKTI\PROJEKTI\NEWHRAST\HRASTVIJAKI\MBSOFTWARE\X64\RELEASE\PCIE.OBJ|C:\PROJEKTI\PROJEKTI\NEWHRAST\HRASTVIJAKI\MBSOFTWARE\X64\RELEASE\POINTGRAY.OBJ|C:\PROJEKTI\PROJEKTI\NEWHRAST\HRASTVIJAKI\MBSOFTWARE\X64\RELEASE\QRC_MBSOFTWARE.OBJ|C:\PROJEKTI\PROJEKTI\NEWHRAST\HRASTVIJAKI\MBSOFTWARE\X64\RELEASE\SERIAL.OBJ|C:\PROJEKTI\PROJEKTI\NEWHRAST\HRASTVIJAKI\MBSOFTWARE\X64\RELEASE\SERVER.OBJ|C:\PROJEKTI\PROJEKTI\NEWHRAST\HRASTVIJAKI\MBSOFTWARE\X64\RELEASE\SIGNALS.OBJ|C:\PROJEKTI\PROJEKTI\NEWHRAST\HRASTVIJAKI\MBSOFTWARE\X64\RELEASE\SMCDRIVE.OBJ|C:\PROJEKTI\PROJEKTI\NEWHRAST\HRASTVIJAKI\MBSOFTWARE\X64\RELEASE\STATUSBOX.OBJ|C:\PROJEKTI\PROJEKTI\NEWHRAST\HRASTVIJAKI\MBSOFTWARE\X64\RELEASE\STDAFX.OBJ|C:\PROJEKTI\PROJEKTI\NEWHRAST\HRASTVIJAKI\MBSOFTWARE\X64\RELEASE\TCP.OBJ|C:\PROJEKTI\PROJEKTI\NEWHRAST\HRASTVIJAKI\MBSOFTWARE\X64\RELEASE\TIMER.OBJ|C:\PROJEKTI\PROJEKTI\NEWHRAST\HRASTVIJAKI\MBSOFTWARE\X64\RELEASE\TYPES.OBJ|C:\PROJEKTI\PROJEKTI\NEWHRAST\HRASTVIJAKI\MBSOFTWARE\X64\RELEASE\XILINXZYNQ.OBJ
C:\PROJEKTI\PROJEKTI\NEWHRAST\HRASTVIJAKI\X64\RELEASE\MBSOFTWARE.ILK
C:\PROJEKTI\PROJEKTI\NEWHRAST\HRASTVIJAKI\X64\RELEASE\MBSOFTWARE.EXE
C:\PROJEKTI\PROJEKTI\NEWHRAST\HRASTVIJAKI\X64\RELEASE\MBSOFTWARE.PDB
^C:\PROJEKTI\HRASTVIJAKI\MBSOFTWARE\X64\RELEASE\ABOUTUS.OBJ|C:\PROJEKTI\HRASTVIJAKI\MBSOFTWARE\X64\RELEASE\CAMERA.OBJ|C:\PROJEKTI\HRASTVIJAKI\MBSOFTWARE\X64\RELEASE\CCIRCLE.OBJ|C:\PROJEKTI\HRASTVIJAKI\MBSOFTWARE\X64\RELEASE\CCUSTOMGRAPHICSITEM.OBJ|C:\PROJEKTI\HRASTVIJAKI\MBSOFTWARE\X64\RELEASE\CLINE.OBJ|C:\PROJEKTI\HRASTVIJAKI\MBSOFTWARE\X64\RELEASE\CONTROLCARDMB.OBJ|C:\PROJEKTI\HRASTVIJAKI\MBSOFTWARE\X64\RELEASE\CONTROLLPT.OBJ|C:\PROJEKTI\HRASTVIJAKI\MBSOFTWARE\X64\RELEASE\CPOINTFLOAT.OBJ|C:\PROJEKTI\HRASTVIJAKI\MBSOFTWARE\X64\RELEASE\CPROPERTY.OBJ|C:\PROJEKTI\HRASTVIJAKI\MBSOFTWARE\X64\RELEASE\CRECTROTATED.OBJ|C:\PROJEKTI\HRASTVIJAKI\MBSOFTWARE\X64\RELEASE\DELAYEDDRAW.OBJ|C:\PROJEKTI\HRASTVIJAKI\MBSOFTWARE\X64\RELEASE\DLGTYPES.OBJ|C:\PROJEKTI\HRASTVIJAKI\MBSOFTWARE\X64\RELEASE\GENERALSETTINGS.OBJ|C:\PROJEKTI\HRASTVIJAKI\MBSOFTWARE\X64\RELEASE\HISTORY.OBJ|C:\PROJEKTI\HRASTVIJAKI\MBSOFTWARE\X64\RELEASE\IMAGEPROCESSING.OBJ|C:\PROJEKTI\HRASTVIJAKI\MBSOFTWARE\X64\RELEASE\IMAGINGSOURCE.OBJ|C:\PROJEKTI\HRASTVIJAKI\MBSOFTWARE\X64\RELEASE\LOGINWINDOW.OBJ|C:\PROJEKTI\HRASTVIJAKI\MBSOFTWARE\X64\RELEASE\LOGWINDOW.OBJ|C:\PROJEKTI\HRASTVIJAKI\MBSOFTWARE\X64\RELEASE\MAIN.OBJ|C:\PROJEKTI\HRASTVIJAKI\MBSOFTWARE\X64\RELEASE\MBSOFTWARE.OBJ|C:\PROJEKTI\HRASTVIJAKI\MBSOFTWARE\X64\RELEASE\MBSOFTWARE.RES|C:\PROJEKTI\HRASTVIJAKI\MBSOFTWARE\X64\RELEASE\MEASURAND.OBJ|C:\PROJEKTI\HRASTVIJAKI\MBSOFTWARE\X64\RELEASE\MEMORYBUFFER.OBJ|C:\PROJEKTI\HRASTVIJAKI\MBSOFTWARE\X64\RELEASE\MOC_ABOUTUS.OBJ|C:\PROJEKTI\HRASTVIJAKI\MBSOFTWARE\X64\RELEASE\MOC_CAMERA.OBJ|C:\PROJEKTI\HRASTVIJAKI\MBSOFTWARE\X64\RELEASE\MOC_CONTROLCARDMB.OBJ|C:\PROJEKTI\HRASTVIJAKI\MBSOFTWARE\X64\RELEASE\MOC_CONTROLLPT.OBJ|C:\PROJEKTI\HRASTVIJAKI\MBSOFTWARE\X64\RELEASE\MOC_DLGTYPES.OBJ|C:\PROJEKTI\HRASTVIJAKI\MBSOFTWARE\X64\RELEASE\MOC_GENERALSETTINGS.OBJ|C:\PROJEKTI\HRASTVIJAKI\MBSOFTWARE\X64\RELEASE\MOC_HISTORY.OBJ|C:\PROJEKTI\HRASTVIJAKI\MBSOFTWARE\X64\RELEASE\MOC_IMAGEPROCESSING.OBJ|C:\PROJEKTI\HRASTVIJAKI\MBSOFTWARE\X64\RELEASE\MOC_LOGINWINDOW.OBJ|C:\PROJEKTI\HRASTVIJAKI\MBSOFTWARE\X64\RELEASE\MOC_LOGWINDOW.OBJ|C:\PROJEKTI\HRASTVIJAKI\MBSOFTWARE\X64\RELEASE\MOC_MBSOFTWARE.OBJ|C:\PROJEKTI\HRASTVIJAKI\MBSOFTWARE\X64\RELEASE\MOC_MEASURAND.OBJ|C:\PROJEKTI\HRASTVIJAKI\MBSOFTWARE\X64\RELEASE\MOC_POINTGRAY.OBJ|C:\PROJEKTI\HRASTVIJAKI\MBSOFTWARE\X64\RELEASE\MOC_SERIAL.OBJ|C:\PROJEKTI\HRASTVIJAKI\MBSOFTWARE\X64\RELEASE\MOC_SERVER.OBJ|C:\PROJEKTI\HRASTVIJAKI\MBSOFTWARE\X64\RELEASE\MOC_SMCDRIVE.OBJ|C:\PROJEKTI\HRASTVIJAKI\MBSOFTWARE\X64\RELEASE\MOC_STATUSBOX.OBJ|C:\PROJEKTI\HRASTVIJAKI\MBSOFTWARE\X64\RELEASE\MOC_TCP.OBJ|C:\PROJEKTI\HRASTVIJAKI\MBSOFTWARE\X64\RELEASE\MOC_TYPES.OBJ|C:\PROJEKTI\HRASTVIJAKI\MBSOFTWARE\X64\RELEASE\MOC_XILINXZYNQ.OBJ|C:\PROJEKTI\HRASTVIJAKI\MBSOFTWARE\X64\RELEASE\PCIE.OBJ|C:\PROJEKTI\HRASTVIJAKI\MBSOFTWARE\X64\RELEASE\POINTGRAY.OBJ|C:\PROJEKTI\HRASTVIJAKI\MBSOFTWARE\X64\RELEASE\QRC_MBSOFTWARE.OBJ|C:\PROJEKTI\HRASTVIJAKI\MBSOFTWARE\X64\RELEASE\SERIAL.OBJ|C:\PROJEKTI\HRASTVIJAKI\MBSOFTWARE\X64\RELEASE\SERVER.OBJ|C:\PROJEKTI\HRASTVIJAKI\MBSOFTWARE\X64\RELEASE\SIGNALS.OBJ|C:\PROJEKTI\HRASTVIJAKI\MBSOFTWARE\X64\RELEASE\SMCDRIVE.OBJ|C:\PROJEKTI\HRASTVIJAKI\MBSOFTWARE\X64\RELEASE\STATUSBOX.OBJ|C:\PROJEKTI\HRASTVIJAKI\MBSOFTWARE\X64\RELEASE\STDAFX.OBJ|C:\PROJEKTI\HRASTVIJAKI\MBSOFTWARE\X64\RELEASE\TCP.OBJ|C:\PROJEKTI\HRASTVIJAKI\MBSOFTWARE\X64\RELEASE\TIMER.OBJ|C:\PROJEKTI\HRASTVIJAKI\MBSOFTWARE\X64\RELEASE\TYPES.OBJ|C:\PROJEKTI\HRASTVIJAKI\MBSOFTWARE\X64\RELEASE\XILINXZYNQ.OBJ
C:\PROJEKTI\HRASTVIJAKI\X64\RELEASE\MBSOFTWARE.ILK
C:\PROJEKTI\HRASTVIJAKI\X64\RELEASE\MBSOFTWARE.EXE
C:\PROJEKTI\HRASTVIJAKI\X64\RELEASE\MBSOFTWARE.PDB
