^C:\PROJEKTI\HRASTVIJAKI\MBSOFTWARE\MBSOFTWARE.RC
C:\PROJEKTI\HRASTVIJAKI\MBSOFTWARE\RES\MBICON.ICO
^C:\PROJEKTI\PROJEKTI\NEWHRAST\HRASTVIJAKI\MBSOFTWARE\MBSOFTWARE.RC
C:\PROJEKTI\PROJEKTI\NEWHRAST\HRASTVIJAKI\MBSOFTWARE\RES\MBICON.ICO
