^C:\PROJEKTI\PROJEKTI\NEWHRAST\HRASTVIJAKI\MBSOFTWARE\X64\DEBUG\ABOUTUS.OBJ|C:\PROJEKTI\PROJEKTI\NEWHRAST\HRASTVIJAKI\MBSOFTWARE\X64\DEBUG\CAMERA.OBJ|C:\PROJEKTI\PROJEKTI\NEWHRAST\HRASTVIJAKI\MBSOFTWARE\X64\DEBUG\CCIRCLE.OBJ|C:\PROJEKTI\PROJEKTI\NEWHRAST\HRASTVIJAKI\MBSOFTWARE\X64\DEBUG\CCUSTOMGRAPHICSITEM.OBJ|C:\PROJEKTI\PROJEKTI\NEWHRAST\HRASTVIJAKI\MBSOFTWARE\X64\DEBUG\CLINE.OBJ|C:\PROJEKTI\PROJEKTI\NEWHRAST\HRASTVIJAKI\MBSOFTWARE\X64\DEBUG\CONTROLCARDMB.OBJ|C:\PROJEKTI\PROJEKTI\NEWHRAST\HRASTVIJAKI\MBSOFTWARE\X64\DEBUG\CONTROLLPT.OBJ|C:\PROJEKTI\PROJEKTI\NEWHRAST\HRASTVIJAKI\MBSOFTWARE\X64\DEBUG\CPOINTFLOAT.OBJ|C:\PROJEKTI\PROJEKTI\NEWHRAST\HRASTVIJAKI\MBSOFTWARE\X64\DEBUG\CPROPERTY.OBJ|C:\PROJEKTI\PROJEKTI\NEWHRAST\HRASTVIJAKI\MBSOFTWARE\X64\DEBUG\CRECTROTATED.OBJ|C:\PROJEKTI\PROJEKTI\NEWHRAST\HRASTVIJAKI\MBSOFTWARE\X64\DEBUG\DELAYEDDRAW.OBJ|C:\PROJEKTI\PROJEKTI\NEWHRAST\HRASTVIJAKI\MBSOFTWARE\X64\DEBUG\DLGTYPES.OBJ|C:\PROJEKTI\PROJEKTI\NEWHRAST\HRASTVIJAKI\MBSOFTWARE\X64\DEBUG\GENERALSETTINGS.OBJ|C:\PROJEKTI\PROJEKTI\NEWHRAST\HRASTVIJAKI\MBSOFTWARE\X64\DEBUG\HISTORY.OBJ|C:\PROJEKTI\PROJEKTI\NEWHRAST\HRASTVIJAKI\MBSOFTWARE\X64\DEBUG\IMAGEPROCESSING.OBJ|C:\PROJEKTI\PROJEKTI\NEWHRAST\HRASTVIJAKI\MBSOFTWARE\X64\DEBUG\IMAGINGSOURCE.OBJ|C:\PROJEKTI\PROJEKTI\NEWHRAST\HRASTVIJAKI\MBSOFTWARE\X64\DEBUG\LOGINWINDOW.OBJ|C:\PROJEKTI\PROJEKTI\NEWHRAST\HRASTVIJAKI\MBSOFTWARE\X64\DEBUG\LOGWINDOW.OBJ|C:\PROJEKTI\PROJEKTI\NEWHRAST\HRASTVIJAKI\MBSOFTWARE\X64\DEBUG\MAIN.OBJ|C:\PROJEKTI\PROJEKTI\NEWHRAST\HRASTVIJAKI\MBSOFTWARE\X64\DEBUG\MBSOFTWARE.OBJ|C:\PROJEKTI\PROJEKTI\NEWHRAST\HRASTVIJAKI\MBSOFTWARE\X64\DEBUG\MBSOFTWARE.RES|C:\PROJEKTI\PROJEKTI\NEWHRAST\HRASTVIJAKI\MBSOFTWARE\X64\DEBUG\MEASURAND.OBJ|C:\PROJEKTI\PROJEKTI\NEWHRAST\HRASTVIJAKI\MBSOFTWARE\X64\DEBUG\MEMORYBUFFER.OBJ|C:\PROJEKTI\PROJEKTI\NEWHRAST\HRASTVIJAKI\MBSOFTWARE\X64\DEBUG\MOC_ABOUTUS.OBJ|C:\PROJEKTI\PROJEKTI\NEWHRAST\HRASTVIJAKI\MBSOFTWARE\X64\DEBUG\MOC_CAMERA.OBJ|C:\PROJEKTI\PROJEKTI\NEWHRAST\HRASTVIJAKI\MBSOFTWARE\X64\DEBUG\MOC_CONTROLCARDMB.OBJ|C:\PROJEKTI\PROJEKTI\NEWHRAST\HRASTVIJAKI\MBSOFTWARE\X64\DEBUG\MOC_CONTROLLPT.OBJ|C:\PROJEKTI\PROJEKTI\NEWHRAST\HRASTVIJAKI\MBSOFTWARE\X64\DEBUG\MOC_DLGTYPES.OBJ|C:\PROJEKTI\PROJEKTI\NEWHRAST\HRASTVIJAKI\MBSOFTWARE\X64\DEBUG\MOC_GENERALSETTINGS.OBJ|C:\PROJEKTI\PROJEKTI\NEWHRAST\HRASTVIJAKI\MBSOFTWARE\X64\DEBUG\MOC_HISTORY.OBJ|C:\PROJEKTI\PROJEKTI\NEWHRAST\HRASTVIJAKI\MBSOFTWARE\X64\DEBUG\MOC_IMAGEPROCESSING.OBJ|C:\PROJEKTI\PROJEKTI\NEWHRAST\HRASTVIJAKI\MBSOFTWARE\X64\DEBUG\MOC_LOGINWINDOW.OBJ|C:\PROJEKTI\PROJEKTI\NEWHRAST\HRASTVIJAKI\MBSOFTWARE\X64\DEBUG\MOC_LOGWINDOW.OBJ|C:\PROJEKTI\PROJEKTI\NEWHRAST\HRASTVIJAKI\MBSOFTWARE\X64\DEBUG\MOC_MBSOFTWARE.OBJ|C:\PROJEKTI\PROJEKTI\NEWHRAST\HRASTVIJAKI\MBSOFTWARE\X64\DEBUG\MOC_MEASURAND.OBJ|C:\PROJEKTI\PROJEKTI\NEWHRAST\HRASTVIJAKI\MBSOFTWARE\X64\DEBUG\MOC_POINTGRAY.OBJ|C:\PROJEKTI\PROJEKTI\NEWHRAST\HRASTVIJAKI\MBSOFTWARE\X64\DEBUG\MOC_SERIAL.OBJ|C:\PROJEKTI\PROJEKTI\NEWHRAST\HRASTVIJAKI\MBSOFTWARE\X64\DEBUG\MOC_SERVER.OBJ|C:\PROJEKTI\PROJEKTI\NEWHRAST\HRASTVIJAKI\MBSOFTWARE\X64\DEBUG\MOC_SMCDRIVE.OBJ|C:\PROJEKTI\PROJEKTI\NEWHRAST\HRASTVIJAKI\MBSOFTWARE\X64\DEBUG\MOC_STATUSBOX.OBJ|C:\PROJEKTI\PROJEKTI\NEWHRAST\HRASTVIJAKI\MBSOFTWARE\X64\DEBUG\MOC_TCP.OBJ|C:\PROJEKTI\PROJEKTI\NEWHRAST\HRASTVIJAKI\MBSOFTWARE\X64\DEBUG\MOC_TYPES.OBJ|C:\PROJEKTI\PROJEKTI\NEWHRAST\HRASTVIJAKI\MBSOFTWARE\X64\DEBUG\MOC_XILINXZYNQ.OBJ|C:\PROJEKTI\PROJEKTI\NEWHRAST\HRASTVIJAKI\MBSOFTWARE\X64\DEBUG\PCIE.OBJ|C:\PROJEKTI\PROJEKTI\NEWHRAST\HRASTVIJAKI\MBSOFTWARE\X64\DEBUG\POINTGRAY.OBJ|C:\PROJEKTI\PROJEKTI\NEWHRAST\HRASTVIJAKI\MBSOFTWARE\X64\DEBUG\QRC_MBSOFTWARE.OBJ|C:\PROJEKTI\PROJEKTI\NEWHRAST\HRASTVIJAKI\MBSOFTWARE\X64\DEBUG\SERIAL.OBJ|C:\PROJEKTI\PROJEKTI\NEWHRAST\HRASTVIJAKI\MBSOFTWARE\X64\DEBUG\SERVER.OBJ|C:\PROJEKTI\PROJEKTI\NEWHRAST\HRASTVIJAKI\MBSOFTWARE\X64\DEBUG\SIGNALS.OBJ|C:\PROJEKTI\PROJEKTI\NEWHRAST\HRASTVIJAKI\MBSOFTWARE\X64\DEBUG\SMCDRIVE.OBJ|C:\PROJEKTI\PROJEKTI\NEWHRAST\HRASTVIJAKI\MBSOFTWARE\X64\DEBUG\STATUSBOX.OBJ|C:\PROJEKTI\PROJEKTI\NEWHRAST\HRASTVIJAKI\MBSOFTWARE\X64\DEBUG\STDAFX.OBJ|C:\PROJEKTI\PROJEKTI\NEWHRAST\HRASTVIJAKI\MBSOFTWARE\X64\DEBUG\TCP.OBJ|C:\PROJEKTI\PROJEKTI\NEWHRAST\HRASTVIJAKI\MBSOFTWARE\X64\DEBUG\TIMER.OBJ|C:\PROJEKTI\PROJEKTI\NEWHRAST\HRASTVIJAKI\MBSOFTWARE\X64\DEBUG\TYPES.OBJ|C:\PROJEKTI\PROJEKTI\NEWHRAST\HRASTVIJAKI\MBSOFTWARE\X64\DEBUG\XILINXZYNQ.OBJ
C:\PROJEKTI\PROJEKTI\NEWHRAST\HRASTVIJAKI\X64\DEBUG\MBSOFTWARE.EXE
C:\PROJEKTI\PROJEKTI\NEWHRAST\HRASTVIJAKI\X64\DEBUG\MBSOFTWARE.ILK
C:\PROJEKTI\PROJEKTI\NEWHRAST\HRASTVIJAKI\X64\DEBUG\MBSOFTWARE.PDB
