^C:\PROJEKTI\HRASTVIJAKI\MBSOFTWARE\MBSOFTWARE.RC
/l"0x0409" /nologo /fo"X64\DEBUG\MBSOFTWARE.RES"   C:\PROJEKTI\HRASTVIJAKI\MBSOFTWARE\MBSOFTWARE.RC
^C:\PROJEKTI\PROJEKTI\NEWHRAST\HRASTVIJAKI\MBSOFTWARE\MBSOFTWARE.RC
/l"0x0409" /nologo /fo"X64\DEBUG\MBSOFTWARE.RES"   C:\PROJEKTI\PROJEKTI\NEWHRAST\HRASTVIJAKI\MBSOFTWARE\MBSOFTWARE.RC
