^C:\PROJEKTI\PROJEKTI\NEWHRAST\HRASTVIJAKI\MBSOFTWARE\ABOUTUS.UI
C:\PROJEKTI\PROJEKTI\NEWHRAST\HRASTVIJAKI\MBSOFTWARE\.\GENERATEDFILES\UI_ABOUTUS.H
^C:\PROJEKTI\PROJEKTI\NEWHRAST\HRASTVIJAKI\MBSOFTWARE\CAMERA.UI
C:\PROJEKTI\PROJEKTI\NEWHRAST\HRASTVIJAKI\MBSOFTWARE\.\GENERATEDFILES\UI_CAMERA.H
^C:\PROJEKTI\PROJEKTI\NEWHRAST\HRASTVIJAKI\MBSOFTWARE\CONTROLLPT.UI
C:\PROJEKTI\PROJEKTI\NEWHRAST\HRASTVIJAKI\MBSOFTWARE\.\GENERATEDFILES\UI_CONTROLLPT.H
^C:\PROJEKTI\PROJEKTI\NEWHRAST\HRASTVIJAKI\MBSOFTWARE\DLGTYPES.UI
C:\PROJEKTI\PROJEKTI\NEWHRAST\HRASTVIJAKI\MBSOFTWARE\.\GENERATEDFILES\UI_DLGTYPES.H
^C:\PROJEKTI\PROJEKTI\NEWHRAST\HRASTVIJAKI\MBSOFTWARE\GENERALSETTINGS.UI
C:\PROJEKTI\PROJEKTI\NEWHRAST\HRASTVIJAKI\MBSOFTWARE\.\GENERATEDFILES\UI_GENERALSETTINGS.H
^C:\PROJEKTI\PROJEKTI\NEWHRAST\HRASTVIJAKI\MBSOFTWARE\HISTORY.UI
C:\PROJEKTI\PROJEKTI\NEWHRAST\HRASTVIJAKI\MBSOFTWARE\.\GENERATEDFILES\UI_HISTORY.H
^C:\PROJEKTI\PROJEKTI\NEWHRAST\HRASTVIJAKI\MBSOFTWARE\IMAGEPROCESSING.UI
C:\PROJEKTI\PROJEKTI\NEWHRAST\HRASTVIJAKI\MBSOFTWARE\.\GENERATEDFILES\UI_IMAGEPROCESSING.H
^C:\PROJEKTI\PROJEKTI\NEWHRAST\HRASTVIJAKI\MBSOFTWARE\KORACNO.UI
C:\PROJEKTI\PROJEKTI\NEWHRAST\HRASTVIJAKI\MBSOFTWARE\.\GENERATEDFILES\UI_KORACNO.H
^C:\PROJEKTI\PROJEKTI\NEWHRAST\HRASTVIJAKI\MBSOFTWARE\LOGINWINDOW.UI
C:\PROJEKTI\PROJEKTI\NEWHRAST\HRASTVIJAKI\MBSOFTWARE\.\GENERATEDFILES\UI_LOGINWINDOW.H
^C:\PROJEKTI\PROJEKTI\NEWHRAST\HRASTVIJAKI\MBSOFTWARE\LOGWINDOW.UI
C:\PROJEKTI\PROJEKTI\NEWHRAST\HRASTVIJAKI\MBSOFTWARE\.\GENERATEDFILES\UI_LOGWINDOW.H
^C:\PROJEKTI\PROJEKTI\NEWHRAST\HRASTVIJAKI\MBSOFTWARE\MBSERIALCARD.UI
C:\PROJEKTI\PROJEKTI\NEWHRAST\HRASTVIJAKI\MBSOFTWARE\.\GENERATEDFILES\UI_MBSERIALCARD.H
^C:\PROJEKTI\PROJEKTI\NEWHRAST\HRASTVIJAKI\MBSOFTWARE\MBSOFTWARE.UI
C:\PROJEKTI\PROJEKTI\NEWHRAST\HRASTVIJAKI\MBSOFTWARE\.\GENERATEDFILES\UI_MBSOFTWARE.H
^C:\PROJEKTI\PROJEKTI\NEWHRAST\HRASTVIJAKI\MBSOFTWARE\SMCDRIVE.UI
C:\PROJEKTI\PROJEKTI\NEWHRAST\HRASTVIJAKI\MBSOFTWARE\.\GENERATEDFILES\UI_SMCDRIVE.H
^C:\PROJEKTI\PROJEKTI\NEWHRAST\HRASTVIJAKI\MBSOFTWARE\STATUSBOX.UI
C:\PROJEKTI\PROJEKTI\NEWHRAST\HRASTVIJAKI\MBSOFTWARE\.\GENERATEDFILES\UI_STATUSBOX.H
^C:\PROJEKTI\PROJEKTI\NEWHRAST\HRASTVIJAKI\MBSOFTWARE\TCP.UI
C:\PROJEKTI\PROJEKTI\NEWHRAST\HRASTVIJAKI\MBSOFTWARE\.\GENERATEDFILES\UI_TCP.H
^C:\PROJEKTI\PROJEKTI\NEWHRAST\HRASTVIJAKI\MBSOFTWARE\TYPESSETTINGS.UI
C:\PROJEKTI\PROJEKTI\NEWHRAST\HRASTVIJAKI\MBSOFTWARE\.\GENERATEDFILES\UI_TYPESSETTINGS.H
^C:\PROJEKTI\PROJEKTI\NEWHRAST\HRASTVIJAKI\MBSOFTWARE\TYPES.UI
C:\PROJEKTI\PROJEKTI\NEWHRAST\HRASTVIJAKI\MBSOFTWARE\.\GENERATEDFILES\UI_TYPES.H
^C:\PROJEKTI\PROJEKTI\NEWHRAST\HRASTVIJAKI\MBSOFTWARE\XILINXZYNQ.UI
C:\PROJEKTI\PROJEKTI\NEWHRAST\HRASTVIJAKI\MBSOFTWARE\.\GENERATEDFILES\UI_XILINXZYNQ.H
